PWD /home/cdu/Cloud/projects/miami/miami_suite/src
INPUT /etc/texmf/web2c/texmf.cnf
INPUT /usr/share/texmf/web2c/texmf.cnf
INPUT /usr/share/texlive/texmf-dist/web2c/texmf.cnf
INPUT /var/lib/texmf/web2c/pdftex/pdflatex.fmt
INPUT /home/cdu/Cloud/projects/miami/miami_suite/src/miami.cpp
OUTPUT Output/miami.log
OUTPUT Output/miami.pdf
INPUT /var/lib/texmf/fonts/map/pdftex/updmap/pdftex.map
